\relax 
\providecommand\hyper@newdestlabel[2]{}
\providecommand\HyperFirstAtBeginDocument{\AtBeginDocument}
\HyperFirstAtBeginDocument{\ifx\hyper@anchor\@undefined
\global\let\oldcontentsline\contentsline
\gdef\contentsline#1#2#3#4{\oldcontentsline{#1}{#2}{#3}}
\global\let\oldnewlabel\newlabel
\gdef\newlabel#1#2{\newlabelxx{#1}#2}
\gdef\newlabelxx#1#2#3#4#5#6{\oldnewlabel{#1}{{#2}{#3}}}
\AtEndDocument{\ifx\hyper@anchor\@undefined
\let\contentsline\oldcontentsline
\let\newlabel\oldnewlabel
\fi}
\fi}
\global\let\hyper@last\relax 
\gdef\HyperFirstAtBeginDocument#1{#1}
\providecommand\HyField@AuxAddToFields[1]{}
\providecommand\HyField@AuxAddToCoFields[2]{}
\select@language{english}
\@writefile{toc}{\select@language{english}}
\@writefile{lof}{\select@language{english}}
\@writefile{lot}{\select@language{english}}
\@writefile{toc}{\contentsline {section}{\numberline {\textbf  {1.}}\textbf  {Abstract}}{1}{section.0.1}}
\@writefile{toc}{\contentsline {section}{\numberline {\textbf  {2.}}\textbf  {Problem Description}}{1}{section.0.2}}
\@writefile{toc}{\contentsline {section}{\numberline {\textbf  {3.}}\textbf  {Solution Techniques}}{1}{section.0.3}}
\@writefile{toc}{\contentsline {subsection}{\numberline {\textbf  {3.a.}}Indirect approach}{1}{subsection.0.3.1}}
\citation{Geisert2016}
\bibstyle{plain}
\bibdata{Reference}
\@writefile{toc}{\contentsline {subsection}{\numberline {\textbf  {3.b.}}Direct approach}{2}{subsection.0.3.2}}
\@writefile{toc}{\contentsline {section}{\numberline {\textbf  {4.}}\textbf  {Simulations}}{2}{section.0.4}}
\bibcite{Geisert2016}{1}
\@writefile{toc}{\contentsline {chapter}{Bibliography}{3}{chapter*.1}}
